<?xml version="1.0" encoding="UTF-8"?>
<Project>
   <description></description>
   <name>WebTesting</name>
   <tag></tag>
   <UUID>f8a33b70-b5cc-42bb-9e1d-b950b032c7a8</UUID>
   <freeLicense>true</freeLicense>
   <migratedVersion>5.9.0</migratedVersion>
   <modifiedEdition>FREE</modifiedEdition>
   <modifiedVersion>9.5.0</modifiedVersion>
   <pageLoadTimeout>0</pageLoadTimeout>
   <projectFileLocation>C:\Users\LENOV\Documents\Katalon\WebTesting\WebTesting.prj</projectFileLocation>
   <sourceContent>
      <sourceFolderList>
         <sourceFolderConfiguration>
            <url>Include/scripts/groovy</url>
         </sourceFolderConfiguration>
      </sourceFolderList>
      <systemFolderList>
         <systemFolderConfiguration>
            <url>Include/scripts/groovy</url>
         </systemFolderConfiguration>
         <systemFolderConfiguration>
            <url>Include/features</url>
         </systemFolderConfiguration>
         <systemFolderConfiguration>
            <url>Include/config</url>
         </systemFolderConfiguration>
      </systemFolderList>
   </sourceContent>
   <timeStampInProperties>false</timeStampInProperties>
   <type>WEBUI</type>
</Project>
